logoSTS
…
# nx = 1e6  # old: dense polylines (59 MB SVG!)
nx = 500    # enough for accurate crossing detection; gridSVG will thin further

dat <- tibble(
  x = seq(-3, 3, length = nx),
  y = dnorm(x),
  y2 = dnorm(x, .6, .7)/2,
  y3 = dnorm(x, -.6, .7)/2,
  )

dat

# A tibble: 500 × 4
       x       y          y2       y3
   <dbl>   <dbl>       <dbl>    <dbl>
 1 -3    0.00443 0.000000515 0.000798
 2 -2.99 0.00459 0.000000562 0.000847
 3 -2.98 0.00476 0.000000614 0.000898
 4 -2.96 0.00494 0.000000670 0.000951
 5 -2.95 0.00511 0.000000731 0.00101 
 6 -2.94 0.00530 0.000000797 0.00107 
 7 -2.93 0.00549 0.000000870 0.00113 
 8 -2.92 0.00568 0.000000948 0.00120 
 9 -2.90 0.00589 0.00000103  0.00127 
10 -2.89 0.00610 0.00000113  0.00134 
# ℹ 490 more rows
…
ggsave("gglogo2.svg", width = 3, height = 2)

dat2 <- tibble(
  x = seq(-3.2, 3.2, length = nx),
  y = dnorm(x),
  y2 = dnorm(x, .58, .75)/2,
  y3 = dnorm(x, .55, .7)/2,
 
  )

dat2

# A tibble: 500 × 4
       x       y          y2          y3
   <dbl>   <dbl>       <dbl>       <dbl>
 1 -3.2  0.00238 0.000000811 0.000000167
 2 -3.19 0.00248 0.000000884 0.000000184
 3 -3.17 0.00259 0.000000963 0.000000203
 4 -3.16 0.00269 0.00000105  0.000000224
 5 -3.15 0.00281 0.00000114  0.000000247
 6 -3.14 0.00292 0.00000124  0.000000272
 7 -3.12 0.00304 0.00000135  0.000000299
 8 -3.11 0.00316 0.00000147  0.000000329
 9 -3.10 0.00329 0.00000160  0.000000362
10 -3.08 0.00343 0.00000174  0.000000399
# ℹ 490 more rows
…
